<svg width="30" height="31" viewBox="0 0 30 31" fill="none" xmlns="http://www.w3.org/2000/svg">
<g id="bx:bx-support">
<path id="Vector" d="M14.9121 3.3291C8.10683 3.3291 2.57031 8.86562 2.57031 15.6709V20.7841C2.57031 22.0479 3.67737 23.0759 5.03867 23.0759H6.27284C6.60017 23.0759 6.91409 22.9459 7.14554 22.7145C7.37699 22.483 7.50702 22.1691 7.50702 21.8418V15.4944C7.50702 15.1671 7.37699 14.8531 7.14554 14.6217C6.91409 14.3902 6.60017 14.2602 6.27284 14.2602H5.15221C5.83841 9.48394 9.94823 5.79746 14.9121 5.79746C19.8759 5.79746 23.9858 9.48394 24.672 14.2602H23.5513C23.224 14.2602 22.9101 14.3902 22.6786 14.6217C22.4472 14.8531 22.3172 15.1671 22.3172 15.4944V23.0759C22.3172 24.4372 21.2101 25.5443 19.8488 25.5443H17.3804V24.3101H12.4437V28.0126H19.8488C22.5714 28.0126 24.7855 25.7985 24.7855 23.0759C26.1468 23.0759 27.2539 22.0479 27.2539 20.7841V15.6709C27.2539 8.86562 21.7173 3.3291 14.9121 3.3291Z" fill="white"/>
</g>
</svg>
